<svg width="18" height="18" viewBox="0 0 18 18" fill="none" xmlns="http://www.w3.org/2000/svg">
<g clip-path="url(#clip0)">
<path d="M8.83658 4.26562C6.35054 4.26562 4.33789 6.28047 4.33789 8.76432C4.33789 11.2504 6.35273 13.263 8.83658 13.263C11.3226 13.263 13.3353 11.2482 13.3353 8.76432C13.3353 6.27827 11.3204 4.26562 8.83658 4.26562ZM8.83658 11.6843C7.22281 11.6843 5.9166 10.3774 5.9166 8.76432C5.9166 7.15127 7.22354 5.84433 8.83658 5.84433C10.4496 5.84433 11.7566 7.15127 11.7566 8.76432C11.7573 10.3774 10.4504 11.6843 8.83658 11.6843Z" fill="white"/>
<path d="M12.4483 0.0555615C10.8353 -0.0196845 6.83993 -0.0160318 5.22543 0.0555615C3.80672 0.122041 2.55529 0.464666 1.54641 1.47355C-0.139683 3.15964 0.0758271 5.43163 0.0758271 8.76365C0.0758271 12.1738 -0.114114 14.3932 1.54641 16.0537C3.23908 17.7457 5.54395 17.5243 8.83651 17.5243C12.2145 17.5243 13.3805 17.5265 14.5749 17.0641C16.1989 16.4336 17.4248 14.982 17.5446 12.3747C17.6206 10.761 17.6162 6.76634 17.5446 5.15184C17.3999 2.07405 15.7482 0.207515 12.4483 0.0555615ZM15.0016 14.9382C13.8963 16.0435 12.3628 15.9449 8.81533 15.9449C5.16261 15.9449 3.69786 15.999 2.62908 14.9272C1.39811 13.7021 1.62093 11.7348 1.62093 8.75196C1.62093 4.7157 1.20671 1.80887 5.25758 1.60139C6.18829 1.56852 6.46224 1.55756 8.8051 1.55756L8.83797 1.57948C12.731 1.57948 15.7854 1.17183 15.9688 5.22197C16.0105 6.14611 16.0199 6.42371 16.0199 8.76292C16.0192 12.3733 16.0879 13.8468 15.0016 14.9382Z" fill="white"/>
<path d="M13.5127 5.14058C14.0933 5.14058 14.5639 4.66992 14.5639 4.08933C14.5639 3.50875 14.0933 3.03809 13.5127 3.03809C12.9321 3.03809 12.4614 3.50875 12.4614 4.08933C12.4614 4.66992 12.9321 5.14058 13.5127 5.14058Z" fill="white"/>
</g>
<defs>
<clipPath id="clip0">
<rect width="17.5331" height="17.5331" fill="white" transform="translate(0.0668945)"/>
</clipPath>
</defs>
</svg>
